


 - Source File: /Volumes/LaCie_TOM/To_Encode/CBS_ALL_IN/MI201309050087.MXF
 - Output File: /Volumes/LaCie_TOM/To_Encode/CBS_ALL_IN/MI201309050087_2.mp4
 - Preset Used: Vimeo_HD_1080_25p_noLogo
 - Video: 1920x1080 (1,0), 25 fps, Progressive
 - Audio: AAC, 320 kbps, 44 kHz, Stereo
 - Bitrate: VBR, 2 pass, Target 5.00 Mbps, Max 10.00 Mbps
 - Encoding Time: 00:00:30
07/31/2014 10:31:47 AM : Encoding Failed
-------------------------------------
The Operation was interrupted by user
-------------------------------------


 - Source File: /Volumes/LaCie_TOM/To_Encode/CBS_ALL_IN/MI201309050087.MXF
 - Output File: /Volumes/LaCie_TOM/To_Encode/CBS_ALL_IN/MI201309050087_2.mp4
 - Preset Used: Vimeo_HD_1080_25p_noLogo
 - Video: 1920x1080 (1,0), 25 fps, Progressive
 - Audio: AAC, 320 kbps, 44 kHz, Stereo
 - Bitrate: VBR, 2 pass, Target 5.00 Mbps, Max 10.00 Mbps
 - Encoding Time: 00:00:30
07/31/2014 10:31:47 AM : Encoding Failed
-------------------------------------
The Operation was interrupted by user
-------------------------------------


 - Source File: /Volumes/LaCie_TOM/To_Encode/CBS_ALL_IN/MI201309050087.MXF
 - Output File: /Volumes/LaCie_TOM/To_Encode/CBS_ALL_IN/MI201309050087_1.mp4
 - Preset Used: Vimeo_HD_1080_25p_Logo
 - Video: 1920x1080 (1,0), 25 fps, Progressive
 - Audio: AAC, 320 kbps, 44 kHz, Stereo
 - Bitrate: VBR, 2 pass, Target 5.00 Mbps, Max 10.00 Mbps
 - Encoding Time: 00:00:31
07/31/2014 10:31:48 AM : Encoding Failed
-------------------------------------
The Operation was interrupted by user
-------------------------------------